﻿{
			 "RunButtonId": 153,
			"WalkButtonId": 152,
			"LogoutButtonId": 2458,

			"BookNext": 13348,
			"BookPrevious": 13346,
			"BookCloseWindow": 4562,
			"FinishCharacterDesign":  3651,

	"LevelUpContinueLookup": 
	{
		"6247": 6250,
		"6253": 6256,
		"6206": 6209,
		"6216": 6219,
		"4443": 6147,
		"6242": 6245,
		"6211": 6214,
		"6226": 6229,
		"4272": 4275,
		"6231": 6234,
		"6258": 6261,
		"4282": 4285,
		"6263": 6266,
		"6221": 6224,
		"4416": 4440,
		"6237": 6240,
		"4277": 4280,
		"4261": 4265,
		"12122": 12125,
		"310": 314,
		"4267": 4270
	}
}